@startuml
[*] -> Borrador
Predespachado : intenta predespachar en Sonar
Predespachado : almacena despacho_sonar_id
Borrador --> Despachado
Borrador --> Predespachado
Despachado : Si no esta despachado en Sonar intenta despachar
Despachado --> Finalizado
Finalizado -up-> [*]
Predespachado -left-> Cancelado
Despachado -> Cancelado
Predespachado --> Finalizado
Cancelado --> [*]
Cancelado : Cancelar Sonar
@enduml
