<?xml version="1.0" encoding="UTF-8" standalone="no"?>
<!-- Created with Inkscape (http://www.inkscape.org/) -->

<svg
   xmlns:dc="http://purl.org/dc/elements/1.1/"
   xmlns:cc="http://creativecommons.org/ns#"
   xmlns:rdf="http://www.w3.org/1999/02/22-rdf-syntax-ns#"
   xmlns:svg="http://www.w3.org/2000/svg"
   xmlns="http://www.w3.org/2000/svg"
   xmlns:sodipodi="http://sodipodi.sourceforge.net/DTD/sodipodi-0.dtd"
   xmlns:inkscape="http://www.inkscape.org/namespaces/inkscape"
   id="svg2"
   sodipodi:docname="tryton-drivers.svg"
   viewBox="0 0 90 90"
   version="1.1"
   inkscape:version="0.92.2 2405546, 2018-03-11">
  <defs
     id="defs4">
    <filter
       id="filter3802"
       inkscape:collect="always">
      <feGaussianBlur
         id="feGaussianBlur3804"
         stdDeviation="0.59073866"
         inkscape:collect="always" />
    </filter>
    <filter
       id="filter3830"
       height="5.8345"
       width="1.3446"
       y="-2.4173"
       x="-.17229"
       inkscape:collect="always">
      <feGaussianBlur
         id="feGaussianBlur3832"
         stdDeviation="3.3678499"
         inkscape:collect="always" />
    </filter>
    <filter
       id="filter3844"
       height="1.9864"
       width="2.7038"
       y="-.49322"
       x="-.85192"
       inkscape:collect="always">
      <feGaussianBlur
         id="feGaussianBlur3846"
         stdDeviation="1.4953936"
         inkscape:collect="always" />
    </filter>
    <filter
       id="filter3876"
       inkscape:collect="always">
      <feGaussianBlur
         id="feGaussianBlur3878"
         stdDeviation="0.60982078"
         inkscape:collect="always" />
    </filter>
  </defs>
  <sodipodi:namedview
     id="base"
     bordercolor="#666666"
     inkscape:pageshadow="2"
     inkscape:window-y="26"
     pagecolor="#ffffff"
     inkscape:window-height="1023"
     inkscape:window-maximized="1"
     inkscape:zoom="5.2222222"
     inkscape:window-x="0"
     showgrid="false"
     borderopacity="1.0"
     inkscape:current-layer="layer1"
     inkscape:cx="17.521276"
     inkscape:cy="45"
     inkscape:window-width="1920"
     inkscape:pageopacity="0.0"
     inkscape:document-units="px" />
  <g
     id="layer1"
     inkscape:label="Layer 1"
     inkscape:groupmode="layer"
     transform="translate(0 -962.36)">
    <g
       id="g3880"
       transform="matrix(1.3815424,0,0,1.4069709,-20.163446,-395.48836)">
      <path
         id="path3866"
         style="fill:#808080;stroke:#291919;stroke-width:0.2;filter:url(#filter3876)"
         sodipodi:nodetypes="cccsccscc"
         transform="matrix(1.0001,0,0,0.95148,-0.0044135,49.569)"
         d="m 22.787,992.92 c 17.894,-9.1278 32.775,-4.7017 47.681,-0.38298 0.93078,3.3192 0.5329,6.6383 -0.57447,9.95738 0,0 -9.5223,-4.63898 -13.404,-2.2978 -5.6349,3.3984 -5.3617,19.34 -5.3617,19.34 -3.4486,0.5654 -7.5551,1.0969 -11.489,-0.766 0,0 1.1909,-13.654 -3.4468,-17.234 -3.442,-2.65658 -13.021,0.766 -13.021,0.766 -0.7309,-3.12768 -1.6282,-6.25538 -0.38298,-9.38298 z"
         inkscape:connector-curvature="0" />
      <path
         id="path3741"
         style="opacity:0.72105001;fill:#000000;fill-rule:evenodd;stroke:#100e0e;stroke-width:1.15769994;stroke-linecap:round;stroke-linejoin:round;stroke-miterlimit:0"
         d="m 46.904,968.36 c -16.196,0 -29.312,13.116 -29.312,29.312 0,16.196 13.116,29.344 29.312,29.344 16.196,0 29.344,-13.148 29.344,-29.344 0,-16.196 -13.148,-29.312 -29.344,-29.312 z m -0.46725,4.8906 c 13.497,0 24.422,10.956 24.422,24.453 0,13.497 -10.925,24.422 -24.422,24.422 -13.497,0 -24.453,-10.925 -24.453,-24.422 0,-13.497 10.956,-24.453 24.453,-24.453 z"
         inkscape:connector-curvature="0" />
      <path
         id="path3744"
         d="m 22.787,32.553 c 17.894,-9.1278 32.775,-4.7017 47.681,-0.38298 0.93078,3.3191 0.5329,6.6383 -0.57447,9.9574 0,0 -9.5223,-4.6391 -13.404,-2.2979 -5.6349,3.3984 -5.3617,19.34 -5.3617,19.34 -3.4486,0.56542 -7.5551,1.097 -11.489,-0.76596 0,0 1.1909,-13.655 -3.4468,-17.234 -3.442,-2.6566 -13.021,0.76596 -13.021,0.76596 -0.7309,-3.1277 -1.6282,-6.2553 -0.38298,-9.383 z"
         sodipodi:nodetypes="cccsccscc"
         style="fill:#a52a2a;stroke:#640f0f;stroke-width:0.2"
         transform="translate(0,962.36)"
         inkscape:connector-curvature="0" />
      <path
         id="path3746"
         d="m 26.426,40.596 c 1.1191,-5.0235 2.3953,-9.3325 5.5532,-11.298"
         sodipodi:nodetypes="cc"
         style="fill:none;stroke:#470606;stroke-width:0.40000001"
         transform="translate(0,962.36)"
         inkscape:connector-curvature="0" />
      <path
         id="path3750"
         d="m 40.021,52.66 c 3.5745,1.5051 7.1489,2.4148 10.723,0.38298"
         sodipodi:nodetypes="cc"
         style="fill:none;stroke:#582525;stroke-width:0.30000001"
         transform="translate(0,962.36)"
         inkscape:connector-curvature="0" />
      <ellipse
         id="path3796"
         style="opacity:0.72105001;fill-opacity:0;stroke:#b1adad;stroke-width:1.62960005;stroke-linecap:round;stroke-linejoin:round;stroke-miterlimit:0;filter:url(#filter3802)"
         transform="matrix(0.89758,0,0,0.90309,5.4451,965.8)"
         cx="46.723404"
         cy="34.372341"
         rx="29.680851"
         ry="29.393618" />
      <path
         id="path3828"
         d="M 22.787,36.383 C 39.404,30.7737 54.586,33.2924 69.702,36.19151"
         sodipodi:nodetypes="cc"
         style="fill:none;stroke:#e6d6d6;stroke-width:3;filter:url(#filter3830)"
         transform="translate(0,962.36)"
         inkscape:connector-curvature="0" />
      <path
         id="path3834"
         d="m 42.511,44.234 1.5319,7.2766 2.6809,-7.2766"
         style="opacity:0.47368002;fill:none;stroke:#ece0e0;stroke-width:1px;filter:url(#filter3844)"
         transform="translate(0,962.36)"
         inkscape:connector-curvature="0" />
      <ellipse
         id="path3858"
         style="fill:#cd5c5c;fill-rule:evenodd;stroke:#682d2d;stroke-width:0.5;stroke-linecap:round;stroke-linejoin:round;stroke-miterlimit:0"
         transform="translate(-0.76596,962.94)"
         cx="46.627659"
         cy="36"
         rx="5.2659574"
         ry="4.5957446" />
      <path
         id="path3860"
         sodipodi:nodetypes="cc"
         style="opacity:0.29474003;fill:none;stroke:#470606;stroke-width:0.40000001"
         d="m 26.894,1003 c 1.1191,-5.0235 2.3953,-9.3325 5.5532,-11.298"
         inkscape:connector-curvature="0" />
      <path
         id="path3862"
         sodipodi:nodetypes="cc"
         style="fill:none;stroke:#6c4444;stroke-width:0.40000001"
         d="m 66.532,1003.3 c -1.1191,-5.0235 -2.3953,-9.3325 -5.5532,-11.298"
         inkscape:connector-curvature="0" />
      <path
         id="path3864"
         sodipodi:nodetypes="cc"
         style="opacity:0.29474003;fill:none;stroke:#470606;stroke-width:0.40000001"
         d="m 66.064,1003.3 c -1.1191,-5.0235 -2.3953,-9.3325 -5.5532,-11.298"
         inkscape:connector-curvature="0" />
    </g>
  </g>
  <metadata
     id="metadata26">
    <rdf:RDF>
      <cc:Work>
        <dc:format>image/svg+xml</dc:format>
        <dc:type
           rdf:resource="http://purl.org/dc/dcmitype/StillImage" />
        <cc:license
           rdf:resource="http://creativecommons.org/licenses/publicdomain/" />
        <dc:publisher>
          <cc:Agent
             rdf:about="http://openclipart.org/">
            <dc:title>Openclipart</dc:title>
          </cc:Agent>
        </dc:publisher>
        <dc:title>steering-wheel2</dc:title>
        <dc:date>2010-07-22T12:30:37</dc:date>
        <dc:description>Automotive clip art by NetAlloy</dc:description>
        <dc:source>https://openclipart.org/detail/74305/steering-wheel2-by-netalloy</dc:source>
        <dc:creator>
          <cc:Agent>
            <dc:title>netalloy</dc:title>
          </cc:Agent>
        </dc:creator>
        <dc:subject>
          <rdf:Bag>
            <rdf:li>automotive</rdf:li>
            <rdf:li>car</rdf:li>
            <rdf:li>drive</rdf:li>
            <rdf:li>motor sports</rdf:li>
            <rdf:li>sports2010</rdf:li>
            <rdf:li>steering</rdf:li>
            <rdf:li>steering wheel</rdf:li>
          </rdf:Bag>
        </dc:subject>
      </cc:Work>
      <cc:License
         rdf:about="http://creativecommons.org/licenses/publicdomain/">
        <cc:permits
           rdf:resource="http://creativecommons.org/ns#Reproduction" />
        <cc:permits
           rdf:resource="http://creativecommons.org/ns#Distribution" />
        <cc:permits
           rdf:resource="http://creativecommons.org/ns#DerivativeWorks" />
      </cc:License>
    </rdf:RDF>
  </metadata>
</svg>
