<?xml version="1.0" encoding="UTF-8" standalone="no"?>
<!-- Created with Inkscape (http://www.inkscape.org/) -->

<svg
   xmlns:dc="http://purl.org/dc/elements/1.1/"
   xmlns:cc="http://creativecommons.org/ns#"
   xmlns:rdf="http://www.w3.org/1999/02/22-rdf-syntax-ns#"
   xmlns:svg="http://www.w3.org/2000/svg"
   xmlns="http://www.w3.org/2000/svg"
   xmlns:xlink="http://www.w3.org/1999/xlink"
   xmlns:sodipodi="http://sodipodi.sourceforge.net/DTD/sodipodi-0.dtd"
   xmlns:inkscape="http://www.inkscape.org/namespaces/inkscape"
   id="svg2"
   sodipodi:version="0.32"
   inkscape:version="0.92.2 2405546, 2018-03-11"
   width="104.72994"
   height="128"
   sodipodi:docname="mobile.svg"
   version="1.0"
   viewBox="0 0 98.184317 120">
  <metadata
     id="metadata7">
    <rdf:RDF>
      <cc:Work
         rdf:about="">
        <dc:format>image/svg+xml</dc:format>
        <dc:type
           rdf:resource="http://purl.org/dc/dcmitype/StillImage" />
        <dc:title></dc:title>
      </cc:Work>
    </rdf:RDF>
  </metadata>
  <defs
     id="defs5">
    <linearGradient
       id="linearGradient4552"
       inkscape:collect="always">
      <stop
         id="stop4548"
         offset="0"
         style="stop-color:#ffffff;stop-opacity:1" />
      <stop
         id="stop4550"
         offset="1"
         style="stop-color:#ffcc00;stop-opacity:0;" />
    </linearGradient>
    <linearGradient
       inkscape:collect="always"
       id="linearGradient4542">
      <stop
         style="stop-color:#ffffff;stop-opacity:1"
         offset="0"
         id="stop4538" />
      <stop
         style="stop-color:#ffcc00;stop-opacity:0;"
         offset="1"
         id="stop4540" />
    </linearGradient>
    <radialGradient
       inkscape:collect="always"
       xlink:href="#linearGradient4542"
       id="radialGradient4544"
       cx="63.389648"
       cy="320.84747"
       fx="63.389648"
       fy="320.84747"
       r="25.911133"
       gradientTransform="matrix(1,0,0,1.006814,0,-2.1862398)"
       gradientUnits="userSpaceOnUse" />
    <radialGradient
       inkscape:collect="always"
       xlink:href="#linearGradient4552"
       id="radialGradient4546"
       cx="324.00876"
       cy="320.89056"
       fx="324.00876"
       fy="320.89056"
       r="26.068132"
       gradientTransform="matrix(1,0,0,1.0006863,0,-0.22021341)"
       gradientUnits="userSpaceOnUse" />
  </defs>
  <sodipodi:namedview
     inkscape:window-height="706"
     inkscape:window-width="1364"
     inkscape:pageshadow="2"
     inkscape:pageopacity="0.0"
     borderopacity="1.0"
     bordercolor="#666666"
     pagecolor="#ffffff"
     id="base"
     inkscape:zoom="2.1383632"
     inkscape:cx="21.820401"
     inkscape:cy="52.310052"
     inkscape:window-x="0"
     inkscape:window-y="0"
     inkscape:current-layer="svg2"
     showgrid="false"
     fit-margin-top="0"
     fit-margin-left="0"
     fit-margin-right="0"
     fit-margin-bottom="0"
     inkscape:window-maximized="0" />
  <g
     id="g4565"
     transform="matrix(0.27507475,0,0,0.27507475,-0.70893497,-0.59062022)">
    <path
       id="path829"
       transform="scale(0.93749999)"
       d="m 192.83203,38.785156 c -75.90931,0.02201 -81.9809,0.155348 -84.0918,1.865235 -5.0222,4.068145 -6.01623,10.270057 -2.55468,15.947265 1.24843,2.047552 3.29582,3.703503 5.0625,4.09375 1.63153,0.360394 3.44653,0.816018 4.0332,1.011719 2.61172,0.871221 155.08301,0.376547 158.93359,-0.515625 4.92307,-1.140663 7.65242,-4.017497 8.59961,-9.066406 0.84557,-4.507276 -1.86505,-10.489403 -5.50195,-12.146485 -1.9207,-0.875127 -25.52439,-1.206544 -84.48047,-1.189453 z"
       style="fill:#ff3939;fill-opacity:1;stroke-width:1.06666672"
       inkscape:connector-curvature="0" />
    <path
       id="path827"
       transform="scale(0.93749999)"
       d="M 194.41992,84.673828 C 105.8083,84.640239 69.535979,84.969174 66.09375,85.835938 59.812033,87.417692 55.423367,91.931595 53.457031,98.833984 50.816519,108.10288 36.720057,212.27944 37.525391,216.57227 c 1.069472,5.70076 5.545833,10.11548 11.183593,11.02734 7.646774,1.23681 282.504196,1.18849 289.039066,-0.0508 3.12953,-0.59351 6.76686,-2.09271 8.08398,-3.33008 2.64452,-2.48441 4.68707,-10.35148 3.97852,-15.32422 -0.25078,-1.76 -3.76996,-27.03584 -7.82032,-56.16797 -7.58359,-54.544766 -8.40482,-58.323776 -13.72461,-63.134763 -5.48972,-4.964663 -2.88124,-4.868332 -133.8457,-4.917969 z"
       style="fill:#d5f6ff;fill-opacity:1;stroke-width:1.06666672"
       inkscape:connector-curvature="0" />
    <path
       id="path825"
       transform="scale(0.93749999)"
       d="m 63.304688,294.75977 c -7.350379,0 -11.793531,1.65989 -17.230469,6.43359 -6.209259,5.45181 -8.595703,10.9224 -8.595703,19.70117 0,8.29226 2.205161,13.78637 7.572265,18.86914 6.879051,6.51464 18.297993,8.95673 27.126953,5.80078 10.096598,-3.60906 17.123047,-13.62998 17.123047,-24.42187 0,-15.00841 -11.206973,-26.38281 -25.996093,-26.38281 z"
       style="fill:#ffcc00;fill-opacity:1;stroke-width:1.06666672"
       inkscape:connector-curvature="0" />
    <path
       id="path1312"
       transform="scale(0.93749999)"
       d="m 323.70703,294.80469 c -10.21602,-0.0352 -19.95591,5.89043 -24.18359,15.95508 -2.39173,5.69384 -2.02487,15.97911 0.77539,21.76367 6.28559,12.98429 22.23057,18.20779 35.31836,11.57031 19.27961,-9.77769 19.27961,-36.62271 0,-46.40039 -3.84205,-1.9485 -7.91259,-2.87491 -11.91016,-2.88867 z"
       style="fill:#ffcc00;fill-opacity:1;stroke-width:1.06666672"
       inkscape:connector-curvature="0" />
    <path
       style="fill:#000000;fill-opacity:1;stroke:#000000;stroke-width:1.875"
       d="m 48.57659,435.74606 c -4.54488,-1.96555 -9.62767,-6.88221 -12.31042,-11.90806 -1.90188,-3.56297 -2.1764,-5.96662 -2.51262,-22 -0.25357,-12.09183 -0.75485,-18.24115 -1.52721,-18.73469 -0.63236,-0.40408 -7.3505,-0.74158 -14.92918,-0.75 l -13.77944,-0.0153 0.29738,-93.75 0.29737,-93.75 8.69151,-65 C 17.58431,94.088 22.18266,62.554675 23.02253,59.763937 25.27308,52.285805 31.66125,43.094829 38.26315,37.836511 45.02261,32.452691 62.57808,23.696008 74.07659,19.972731 84.6889,16.536411 103.9429,11.963819 120.5766,8.929536 c 45.11731,-8.230199 81.96607,-7.80855 129.62178,1.48322 54.4943,10.625139 81.69396,25.334032 89.34099,48.313363 1.3805,4.148416 4.87787,27.882001 10.5511,71.601161 l 8.48613,65.39588 v 93.30742 93.30743 l -13.25,0.0153 c -7.2875,0.008 -13.76667,0.34592 -14.39815,0.75 -0.76535,0.48974 -1.28495,6.56925 -1.55849,18.23469 -0.47552,20.27986 -1.45174,23.76885 -8.3493,29.84033 -13.26898,11.67982 -36.52527,6.18278 -41.30263,-9.76261 -0.64974,-2.16866 -1.14143,-10.72891 -1.14143,-19.87231 0,-13.26899 -0.2733,-16.33585 -1.57143,-17.63398 -1.40625,-1.40625 -11.43723,-1.57143 -95.42857,-1.57143 -83.99135,0 -94.02233,0.16518 -95.42858,1.57143 -1.30209,1.30209 -1.5731,4.43007 -1.5812,18.25 -0.009,15.43083 -0.18616,17.05262 -2.36765,21.67857 -2.8098,5.95831 -5.57483,8.67418 -11.62258,11.41597 -5.51068,2.4983 -16.77831,2.75033 -22,0.49209 z M 67.6668,323.96688 c 9.46556,-3.3835 16.05265,-12.77879 16.05265,-22.89619 0,-14.07038 -10.50652,-24.73269 -24.37132,-24.73269 -6.89098,0 -11.05605,1.55488 -16.15318,6.03022 -5.82118,5.11107 -8.05896,10.23968 -8.05896,18.46978 0,7.77399 2.06736,12.92595 7.09902,17.69105 6.44911,6.10747 17.15464,8.39653 25.43179,5.43783 z M 314.64042,322.588 c 18.07464,-9.16658 18.07464,-34.33342 0,-43.5 -12.80683,-6.495 -28.32271,-0.8778 -33.83708,12.25 -2.24224,5.33798 -1.89907,14.9797 0.72617,20.40272 5.89274,12.17277 20.84111,17.06992 33.11091,10.84728 z m 1.99765,-109.26166 c 2.93394,-0.55641 6.34473,-1.96077 7.57953,-3.1208 2.47924,-2.32913 4.39428,-9.7056 3.73001,-14.36754 -0.2351,-1.65 -3.53427,-25.34567 -7.33148,-52.65704 C 313.50651,92.04524 312.73651,88.50321 307.74921,83.99291 302.60259,79.338539 305.0486,79.428423 182.26942,79.381888 99.19603,79.350398 65.19064,79.658184 61.96355,80.470775 56.07444,81.95367 51.95981,86.18607 50.11637,92.65706 c -2.47548,8.68959 -15.69156,106.35495 -14.93656,110.37947 1.00263,5.34447 5.20014,9.48278 10.48554,10.33765 7.16885,1.15951 264.84628,1.11402 270.97272,-0.0478 z M 257.0766,57.363491 c 4.61537,-1.069372 7.17314,-3.766279 8.06113,-8.499631 0.79272,-4.225571 -1.74678,-9.833794 -5.15637,-11.387308 -1.80066,-0.820432 -23.93049,-1.132344 -79.20181,-1.116321 -71.16498,0.02063 -76.85695,0.146981 -78.83591,1.75 -4.70832,3.813886 -5.63952,9.628544 -2.39432,14.950927 1.17041,1.91958 3.09,3.471614 4.74626,3.837471 1.52956,0.337869 3.23102,0.76442 3.78102,0.94789 2.44849,0.81677 145.39008,0.353383 149,-0.483028 z"
       id="path1310"
       inkscape:connector-curvature="0" />
    <path
       style="fill:url(#radialGradient4544);fill-opacity:1;stroke-width:1.06666672"
       d="m 63.304688,294.75977 c -7.350379,0 -11.793531,1.65989 -17.230469,6.43359 -6.209259,5.45181 -8.595703,10.9224 -8.595703,19.70117 0,8.29226 2.205161,13.78637 7.572265,18.86914 6.879051,6.51464 18.297993,8.95673 27.126953,5.80078 10.096598,-3.60906 17.123047,-13.62998 17.123047,-24.42187 0,-15.00841 -11.206973,-26.38281 -25.996093,-26.38281 z"
       transform="scale(0.93749999)"
       id="path831"
       inkscape:connector-curvature="0" />
    <path
       style="fill:url(#radialGradient4546);fill-opacity:1;stroke-width:1.06666672"
       d="m 323.70703,294.80469 c -10.21602,-0.0352 -19.95591,5.89043 -24.18359,15.95508 -2.39173,5.69384 -2.02487,15.97911 0.77539,21.76367 6.28559,12.98429 22.23057,18.20779 35.31836,11.57031 19.27961,-9.77769 19.27961,-36.62271 0,-46.40039 -3.84205,-1.9485 -7.91259,-2.87491 -11.91016,-2.88867 z"
       transform="scale(0.93749999)"
       id="path833"
       inkscape:connector-curvature="0" />
  </g>
</svg>
