<?xml version="1.0" encoding="UTF-8" standalone="no"?>
<!-- Created with Inkscape (http://www.inkscape.org/) -->

<svg
   xmlns:dc="http://purl.org/dc/elements/1.1/"
   xmlns:cc="http://creativecommons.org/ns#"
   xmlns:rdf="http://www.w3.org/1999/02/22-rdf-syntax-ns#"
   xmlns:svg="http://www.w3.org/2000/svg"
   xmlns="http://www.w3.org/2000/svg"
   xmlns:sodipodi="http://sodipodi.sourceforge.net/DTD/sodipodi-0.dtd"
   xmlns:inkscape="http://www.inkscape.org/namespaces/inkscape"
   width="96mm"
   height="91.644165mm"
   viewBox="0 0 96 91.644165"
   version="1.1"
   id="svg833"
   inkscape:version="0.92.2 2405546, 2018-03-11"
   sodipodi:docname="tryton-points.svg">
  <defs
     id="defs827" />
  <sodipodi:namedview
     id="base"
     pagecolor="#ffffff"
     bordercolor="#666666"
     borderopacity="1.0"
     inkscape:pageopacity="0.0"
     inkscape:pageshadow="2"
     inkscape:zoom="0.35"
     inkscape:cx="20.514785"
     inkscape:cy="330.38579"
     inkscape:document-units="mm"
     inkscape:current-layer="layer1"
     showgrid="false"
     fit-margin-top="0"
     fit-margin-left="0"
     fit-margin-right="0"
     fit-margin-bottom="0"
     inkscape:window-width="1366"
     inkscape:window-height="707"
     inkscape:window-x="0"
     inkscape:window-y="0"
     inkscape:window-maximized="1" />
  <metadata
     id="metadata830">
    <rdf:RDF>
      <cc:Work
         rdf:about="">
        <dc:format>image/svg+xml</dc:format>
        <dc:type
           rdf:resource="http://purl.org/dc/dcmitype/StillImage" />
        <dc:title></dc:title>
      </cc:Work>
    </rdf:RDF>
  </metadata>
  <g
     inkscape:label="Capa 1"
     inkscape:groupmode="layer"
     id="layer1"
     transform="translate(-55.29114,-44.913673)">
    <g
       id="g1421"
       transform="matrix(1.1923215,0,0,1.1923215,-10.633678,-26.263015)">
      <g
         transform="translate(-1.7906291e-6,-1.3363482)"
         id="g1394">
        <path
           inkscape:connector-curvature="0"
           style="clip-rule:evenodd;fill:#0088aa;fill-rule:nonzero;stroke-width:0.12132265;stroke-linejoin:round;stroke-miterlimit:1.41420996"
           d="m 77.106171,73.593902 c -12.069663,0 -21.815027,9.75556 -21.815027,21.78834 0,3.78357 0.966821,7.343418 2.661577,10.445148 l 19.154421,32.0668 19.154422,-32.0668 c 1.694756,-3.10173 2.661576,-6.661578 2.661576,-10.445148 0,-12.03326 -9.745607,-21.78834 -21.815028,-21.78834 z"
           id="path1390" />
        <path
           inkscape:connector-curvature="0"
           style="clip-rule:evenodd;fill:#ffffff;fill-rule:nonzero;stroke-width:0.12132265;stroke-linejoin:round;stroke-miterlimit:1.41420996"
           d="m 76.863526,86.256352 c 0.08092,-0.002 0.161238,0 0.242645,0 5.213841,0 9.440358,4.22664 9.440358,9.44048 0,5.213838 -4.226636,9.440358 -9.440358,9.440358 -5.213841,0 -9.440358,-4.22664 -9.440358,-9.440358 0,-5.13231 4.096581,-9.31115 9.197713,-9.44048 z"
           id="path1384" />
      </g>
      <g
         transform="translate(18.441597,-13.898016)"
         id="g1402">
        <path
           inkscape:connector-curvature="0"
           id="path1398"
           d="m 77.106171,73.593902 c -12.069663,0 -21.815027,9.75556 -21.815027,21.78834 0,3.78357 0.966821,7.343418 2.661577,10.445148 l 19.154421,32.0668 19.154422,-32.0668 c 1.694756,-3.10173 2.661576,-6.661578 2.661576,-10.445148 0,-12.03326 -9.745607,-21.78834 -21.815028,-21.78834 z"
           style="clip-rule:evenodd;fill:#5aa02c;fill-rule:nonzero;stroke-width:0.12132265;stroke-linejoin:round;stroke-miterlimit:1.41420996" />
        <path
           inkscape:connector-curvature="0"
           id="path1400"
           d="m 76.863526,86.256352 c 0.08092,-0.002 0.161238,0 0.242645,0 5.213841,0 9.440358,4.22664 9.440358,9.44048 0,5.213838 -4.226636,9.440358 -9.440358,9.440358 -5.213841,0 -9.440358,-4.22664 -9.440358,-9.440358 0,-5.13231 4.096581,-9.31115 9.197713,-9.44048 z"
           style="clip-rule:evenodd;fill:#ffffff;fill-rule:nonzero;stroke-width:0.12132265;stroke-linejoin:round;stroke-miterlimit:1.41420996" />
      </g>
      <g
         id="g1410"
         transform="translate(36.883196,-1.3363482)">
        <path
           style="clip-rule:evenodd;fill:#ff7f2a;fill-rule:nonzero;stroke-width:0.12132265;stroke-linejoin:round;stroke-miterlimit:1.41420996"
           d="m 77.106171,73.593902 c -12.069663,0 -21.815027,9.75556 -21.815027,21.78834 0,3.78357 0.966821,7.343418 2.661577,10.445148 l 19.154421,32.0668 19.154422,-32.0668 c 1.694756,-3.10173 2.661576,-6.661578 2.661576,-10.445148 0,-12.03326 -9.745607,-21.78834 -21.815028,-21.78834 z"
           id="path1406"
           inkscape:connector-curvature="0" />
        <path
           style="clip-rule:evenodd;fill:#ffffff;fill-rule:nonzero;stroke-width:0.12132265;stroke-linejoin:round;stroke-miterlimit:1.41420996"
           d="m 76.863526,86.256352 c 0.08092,-0.002 0.161238,0 0.242645,0 5.213841,0 9.440358,4.22664 9.440358,9.44048 0,5.213838 -4.226636,9.440358 -9.440358,9.440358 -5.213841,0 -9.440358,-4.22664 -9.440358,-9.440358 0,-5.13231 4.096581,-9.31115 9.197713,-9.44048 z"
           id="path1408"
           inkscape:connector-curvature="0" />
      </g>
    </g>
  </g>
</svg>
